^C:\USERS\MAGSHIMIM\SOURCE\REPOS\SAVE\TPROJECT\DEBUG\GAME.OBJ|C:\USERS\MAGSHIMIM\SOURCE\REPOS\SAVE\TPROJECT\DEBUG\HELPER.OBJ|C:\USERS\MAGSHIMIM\SOURCE\REPOS\SAVE\TPROJECT\DEBUG\ROOM.OBJ|C:\USERS\MAGSHIMIM\SOURCE\REPOS\SAVE\TPROJECT\DEBUG\SOURCE.OBJ|C:\USERS\MAGSHIMIM\SOURCE\REPOS\SAVE\TPROJECT\DEBUG\TRIVIASERVER.OBJ|C:\USERS\MAGSHIMIM\SOURCE\REPOS\SAVE\TPROJECT\DEBUG\USER.OBJ|C:\USERS\MAGSHIMIM\SOURCE\REPOS\SAVE\TPROJECT\DEBUG\VALIDATOR.OBJ
/OUT:"C:\USERS\MAGSHIMIM\SOURCE\REPOS\SAVE\DEBUG\TPROJECT.EXE" /INCREMENTAL /NOLOGO KERNEL32.LIB USER32.LIB GDI32.LIB WINSPOOL.LIB COMDLG32.LIB ADVAPI32.LIB SHELL32.LIB OLE32.LIB OLEAUT32.LIB UUID.LIB ODBC32.LIB ODBCCP32.LIB /MANIFEST /MANIFESTUAC:"level='asInvoker' uiAccess='false'" /manifest:embed /DEBUG:FASTLINK /PDB:"C:\USERS\MAGSHIMIM\SOURCE\REPOS\SAVE\DEBUG\TPROJECT.PDB" /TLBID:1 /DYNAMICBASE /NXCOMPAT /IMPLIB:"C:\USERS\MAGSHIMIM\SOURCE\REPOS\SAVE\DEBUG\TPROJECT.LIB" /MACHINE:X86 DEBUG\GAME.OBJDEBUG\HELPER.OBJDEBUG\ROOM.OBJDEBUG\SOURCE.OBJDEBUG\TRIVIASERVER.OBJDEBUG\USER.OBJDEBUG\VALIDATOR.OBJ
^C:\USERS\MAGSHIMIM\SOURCE\REPOS\TPROJECT\TPROJECT\DEBUG\DATABASE.OBJ|C:\USERS\MAGSHIMIM\SOURCE\REPOS\TPROJECT\TPROJECT\DEBUG\GAME.OBJ|C:\USERS\MAGSHIMIM\SOURCE\REPOS\TPROJECT\TPROJECT\DEBUG\HELPER.OBJ|C:\USERS\MAGSHIMIM\SOURCE\REPOS\TPROJECT\TPROJECT\DEBUG\QUESTION.OBJ|C:\USERS\MAGSHIMIM\SOURCE\REPOS\TPROJECT\TPROJECT\DEBUG\RECIEVEDMESSAGE.OBJ|C:\USERS\MAGSHIMIM\SOURCE\REPOS\TPROJECT\TPROJECT\DEBUG\ROOM.OBJ|C:\USERS\MAGSHIMIM\SOURCE\REPOS\TPROJECT\TPROJECT\DEBUG\SOURCE.OBJ|C:\USERS\MAGSHIMIM\SOURCE\REPOS\TPROJECT\TPROJECT\DEBUG\SQLITE3.OBJ|C:\USERS\MAGSHIMIM\SOURCE\REPOS\TPROJECT\TPROJECT\DEBUG\TRIVIASERVER.OBJ|C:\USERS\MAGSHIMIM\SOURCE\REPOS\TPROJECT\TPROJECT\DEBUG\USER.OBJ|C:\USERS\MAGSHIMIM\SOURCE\REPOS\TPROJECT\TPROJECT\DEBUG\VALIDATOR.OBJ
/OUT:"C:\USERS\MAGSHIMIM\SOURCE\REPOS\TPROJECT\DEBUG\TPROJECT.EXE" /INCREMENTAL /NOLOGO KERNEL32.LIB USER32.LIB GDI32.LIB WINSPOOL.LIB COMDLG32.LIB ADVAPI32.LIB SHELL32.LIB OLE32.LIB OLEAUT32.LIB UUID.LIB ODBC32.LIB ODBCCP32.LIB /MANIFEST /MANIFESTUAC:"level='asInvoker' uiAccess='false'" /manifest:embed /DEBUG:FASTLINK /PDB:"C:\USERS\MAGSHIMIM\SOURCE\REPOS\TPROJECT\DEBUG\TPROJECT.PDB" /TLBID:1 /DYNAMICBASE /NXCOMPAT /IMPLIB:"C:\USERS\MAGSHIMIM\SOURCE\REPOS\TPROJECT\DEBUG\TPROJECT.LIB" /MACHINE:X86 DEBUG\DATABASE.OBJDEBUG\GAME.OBJDEBUG\HELPER.OBJDEBUG\QUESTION.OBJDEBUG\RECIEVEDMESSAGE.OBJDEBUG\ROOM.OBJDEBUG\SOURCE.OBJDEBUG\SQLITE3.OBJDEBUG\TRIVIASERVER.OBJDEBUG\USER.OBJDEBUG\VALIDATOR.OBJ
